\relax 
\@writefile{toc}{\contentsline {section}{\numberline {1}User Manual}{1}}
\@writefile{toc}{\contentsline {subsection}{\numberline {1.1}Layout}{1}}
\@writefile{toc}{\contentsline {subsection}{\numberline {1.2}Account Features}{1}}
\@writefile{toc}{\contentsline {subsubsection}{\numberline {1.2.1}Register for a new account}{1}}
\@writefile{toc}{\contentsline {subsubsection}{\numberline {1.2.2}Log in}{1}}
\@writefile{toc}{\contentsline {subsection}{\numberline {1.3}Post Features}{2}}
\@writefile{toc}{\contentsline {subsubsection}{\numberline {1.3.1}Adding a new post}{2}}
\@writefile{toc}{\contentsline {subsubsection}{\numberline {1.3.2}Editting a post}{2}}
\@writefile{toc}{\contentsline {subsubsection}{\numberline {1.3.3}Deleting a post}{2}}
\@writefile{toc}{\contentsline {subsubsection}{\numberline {1.3.4}Searching posts}{2}}
\@writefile{toc}{\contentsline {subsubsection}{\numberline {1.3.5}Viewing posts}{2}}
\@writefile{toc}{\contentsline {subsection}{\numberline {1.4}Comment Features}{2}}
\@writefile{toc}{\contentsline {subsubsection}{\numberline {1.4.1}Adding a comment}{2}}
\@writefile{toc}{\contentsline {subsubsection}{\numberline {1.4.2}Deleting a comment}{2}}
\@writefile{toc}{\contentsline {section}{\numberline {2}Thoughts and Reflections}{3}}
